<svg width="38" height="38" viewBox="0 0 38 38" fill="none" xmlns="http://www.w3.org/2000/svg">
<path fill-rule="evenodd" clip-rule="evenodd" d="M33.5551 33.1138L22.1156 16.4402L22.1351 16.4558L32.4495 4.50519H29.0027L20.6003 14.2321L13.9278 4.50519H4.88803L15.5679 20.0722L15.5666 20.0709L4.30273 33.1138H7.74954L17.0911 22.292L24.5154 33.1138H33.5551ZM12.5621 7.10596L28.6125 30.5131H25.8811L9.81766 7.10596H12.5621Z" fill="#DBE6E5"/>
</svg>
